id,naam,mail
1,Johnath Stocky,johnathstocky@dip.nl
2,Klaus Baglin,klausbaglin@dip.nl
3,Beverley Fenton,beverleyfenton@dip.nl
4,Rivi Alderson,rivialderson@dip.nl
5,Alia Revely,aliarevely@dip.nl
6,Lynnet Carstairs,lynnetcarstairs@dip.nl
7,Dorri McCard,dorrimccard@dip.nl
8,Corey Mockett,coreymockett@dip.nl
9,Hermine Benyan,herminebenyan@dip.nl
10,Ferguson Spincke,fergusonspincke@dip.nl
11,Arlana Boone,arlanaboone@dip.nl
12,Nola Kersey,nolakersey@dip.nl
13,Caty Greasley,catygreasley@dip.nl
14,Lizzie McCormack,lizziemccormack@dip.nl
15,Audrye Jenking,audryejenking@dip.nl
16,Wolfy Fawbert,wolfyfawbert@dip.nl
17,Ranee Mattholie,raneemattholie@dip.nl
18,Lionel Swalwel,lionelswalwel@dip.nl
19,Winna Siely,winnasiely@dip.nl
20,Nissa Pote,nissapote@dip.nl
21,Ericka MacLaverty,erickamaclaverty@dip.nl
22,Averyl Hursey,averylhursey@dip.nl
23,Ennis Revett,ennisrevett@dip.nl
24,Ruben Maclean,rubenmaclean@dip.nl
25,Nicoli Kellet,nicolikellet@dip.nl
26,Peggy Robet,peggyrobet@dip.nl
27,Michale Trippitt,michaletrippitt@dip.nl
28,Penelope Moughtin,penelopemoughtin@dip.nl
29,Lesley Smidmoor,lesleysmidmoor@dip.nl
30,Angelina Minghetti,angelinaminghetti@dip.nl
31,Zena Piddlehinton,zenapiddlehinton@dip.nl
32,Chris Iacoviello,chrisiacoviello@dip.nl
33,Meade O'Gready,meadeogready@dip.nl
34,Almeda Charville,almedacharville@dip.nl
35,Kaia Ciotti,kaiaciotti@dip.nl
36,Camey De Atta,cameydeatta@dip.nl
37,Cal Monckman,calmonckman@dip.nl
38,Napoleon Geard,napoleongeard@dip.nl
39,Thoma Witherop,thomawitherop@dip.nl
40,Baryram Barribal,baryrambarribal@dip.nl
41,Tressa Twitching,tressatwitching@dip.nl
42,Renato Lidgertwood,renatolidgertwood@dip.nl
43,Goldie Johantges,goldiejohantges@dip.nl
44,Twila Skingle,twilaskingle@dip.nl
45,Werner Petruskevich,wernerpetruskevich@dip.nl
46,Frederigo Bingell,frederigobingell@dip.nl
47,Deane O'Neal,deaneoneal@dip.nl
48,Shannan Vasyukov,shannanvasyukov@dip.nl
49,Eddie Bartosch,eddiebartosch@dip.nl
50,Giorgi Loan,giorgiloan@dip.nl
